version="3.3.0.b"
name="Crisis Manager - End-Game Edition (3.3.¢)"
tags={
	"Balance"
	"Events"
	"Overhaul"
	"Utilities"
	"Crisis"
}
picture="thumbnail.png"
supported_version="3.3.*"
remote_file_id="2558262194"